# Logic for Fascist AI on how to deal in peace conferences
# Should favor annexing other nations and taking their states
# Written by Natt "Natt" Natt

#Fascist AI is annexation crazy but will limit its territorial expansion to reasonable levels and take some puppets where it makes sense.

Japan_peace = {
	enable = {
		OR = {
			tag = JAP
			is_subject_of = JAP
		}
	}

	annex_randomness = 0 #400
	liberate_randomness = 0 #100
	puppet_randomness = 0 #200
	take_states_randomness = 0 #250
	force_government_randomness = 0 #50
	
	# ROOT = Taker, FROM = Giver
	annex = {
		factor = 1000 #800	

		modifier = {
			factor = 0
			NOT = {
				is_owner_neighbor_of = FROM
			}
			NOT = {
				has_annex_war_goal = FROM
			}
		}
		modifier = { #Do not annex the entire soviet union until a border with moscow is established
			factor = 0
			FROM = { tag = SOV }
			NOT = {
				219 = {
					any_neighbor_state = {
						is_owned_by = ROOT
					}
				}
			}
			FROM = {
				NOT = { any_owned_state = { OR = { is_claimed_by = ROOT is_core_of = ROOT } } }
			}
		}
		
		modifier = {
			factor = 0
			is_puppet = yes
			FROM = {
				any_owned_state = { 
					NOT = {
						OR = { 
							is_claimed_by = ROOT
							is_core_of = ROOT
							#has_claimed_state_in_peace_conference = ROOT
						}
					}
				}
			}
		}		
	}

	# ROOT = Taker, FROM = Liberated
	liberate = {
		factor = 0 #200 - disable for now
	}

	# ROOT = Taker, FROM = Giver
	puppet = {
		factor = 100 #150
		modifier = { #Strongly seek to establish a puppet after taking Moscow if Japan and Germany - test. Germany also needs Northern Urals.
			factor = 50
			FROM = { tag = SOV }
			NOT = { 
				219 = { #This seems to make Soviet unreleasable by AI for some reason.
					OR = {
						is_owned_by = SOV
						has_claimed_state_in_peace_conference = ROOT
					}
				}
			}
			OR = {
				tag = JAP
				581 = { is_owned_by = ROOT }
			}
		}
		modifier = { #Japan wants PUPPETS for it's co-prosperity sphere instead of direct control.
			factor = 100
			tag = JAP
			#FROM = { capital_scope = { is_on_continent = asia } }
			FROM = {
				OR = {
					is_warlord = yes
					tag = CHI
					tag = PRC
					tag = FIC
					tag = SST
					tag = BOR
					tag = SAR
					tag = BHU
					tag = ECA
					tag = NEP
					tag = SIA
					tag = SIK
					tag = TIB
					tag = YUN
					tag = MON
					tag = RAJ
					tag = PHI
				}
			}
		}
		modifier = {
			factor = 0
			is_puppet = yes
		}
		modifier = { #Dismantle Yugoslavia (revisit in the future)
			factor = 0
			FROM = { tag = YUG }
		}
		modifier = { #Do not puppet Soviet Union unless a border with Moscow is established...
			factor = 0
			FROM = { tag = SOV }
			NOT = {
				219 = {
					any_neighbor_state = {
						is_owned_by = ROOT
					}
				}
			}
		}
		modifier = {
			factor = 0
			NOT = { is_owner_neighbor_of = FROM }
			NOT = {
				FROM = {
					any_neighbor_country = {
						is_puppet_of = ROOT
					}
				}
			}
			NOT = {
				FROM = {
					any_owned_state = {
						any_neighbor_state = {
							OR = {
								owner = { tag = ROOT }
								owner = { is_puppet_of = ROOT }
								has_claimed_state_in_peace_conference = ROOT
							}
						}
					}
				}
			}
			OR = {
				AND = {
					FROM = { capital_scope = { is_on_continent = europe } }
					FROM = { NOT = { tag = IRE } }
					FROM = { NOT = { tag = ENG } }
				}
				NOT = {
					FROM = {
						any_owned_state = { 
							OR = {
								is_coastal = yes
								is_island_state = yes
							}
						}
					}
				}
				NOT = { any_owned_state = { OR = { is_coastal = yes is_island_state = yes } } }
			}
		}
		modifier = { #Don't puppet nations in civil war... this is too buggy.
			factor = 0
			FROM = { has_civil_war = yes }
		}
		modifier = { #Deter expansion outside of continent - puppet on continent first
			factor = 0.1
			OR = {
				AND = {
					capital_scope = { is_on_continent = europe }
					NOT = { FROM = { capital_scope = { is_on_continent = europe } } }
				}
				AND = {
					capital_scope = { is_on_continent = north_america }
					NOT = { FROM = { capital_scope = { is_on_continent = north_america } } }
				}
				AND = {
					capital_scope = { is_on_continent = south_america }
					NOT = { FROM = { capital_scope = { is_on_continent = south_america } } }
				}
				AND = {
					capital_scope = { is_on_continent = australia }
					NOT = { FROM = { capital_scope = { is_on_continent = australia } } }
				}
				AND = {
					capital_scope = { is_on_continent = africa }
					NOT = { FROM = { capital_scope = { is_on_continent = africa } } }
				}
				AND = {
					capital_scope = { is_on_continent = asia }
					NOT = { FROM = { capital_scope = { is_on_continent = asia } } }
				}
				AND = {
					capital_scope = { is_on_continent = middle_east }
					NOT = { FROM = { capital_scope = { is_on_continent = middle_east } } }
				}
			}
		}

		modifier = { #Japan doesn't puppet Australia or NZ
			factor = 0
			tag = JAP
			FROM = { 
				OR = {
					tag = AST 
					tag = NZL
				}
			}
		}
		modifier = { #Japan doesn't puppet stuff if China is pro-japan
			factor = 0
			tag = JAP
			is_in_faction_with = CHI
			CHI = {
				NOT = {
					is_puppet = yes
				}
			}
			FROM = {
				is_literally_china = yes
			}
		}
		modifier = { #Japan doesn't puppet non-Asian nations if in faction with a major fascist European power
			factor = 0
			tag = JAP
			OR = {
				is_in_faction_with = GER
				is_in_faction_with = FRA
				is_in_faction_with = ITA
			}
			FROM = {
				OR = {
					NOT = { capital_scope = { is_on_continent = asia } }
					tag = FRA
					tag = ENG
					tag = HOL
				}
			}
		}
		modifier = { #Not if we or a faction member have a stated interest to wipe them off the map
			factor = 0
			OR = {
				has_annex_war_goal = FROM
				any_country = {
					is_in_faction_with = ROOT
					has_annex_war_goal = FROM
				}
			}
		}
		modifier = { #Dismantle empires before puppeting
			factor = 0.1
			FROM = {
				any_owned_state = {
					NOT = { is_core_of = FROM }
					NOT = { has_claimed_state_in_peace_conference = ROOT }
				}
			}
		}
	}

	# ROOT = Taker, FROM = State
	take_states = {
		factor = 600 #Up from 500 #200 - vanilla		
		modifier = { #Japan prefers puppets for it's co-prosperity sphere instead of direct control.
			factor = 0
			OR = {
				tag = JAP
				is_in_faction_with = JAP
			}
			NOT = {
				FROM = {
					OR = {
						is_claimed_by = ROOT
						is_core_of = ROOT
					}
				}
			}
			FROM = {
				OR = {
					is_core_of = BHU
					is_core_of = ECA
					is_core_of = NEP
					is_core_of = SIA
					is_core_of = SIK
					is_core_of = TIB
					is_core_of = YUN
					is_core_of = MON
					is_core_of = RAJ
					is_core_of = PHI
				}
			}
		}
		modifier = { # prefer not to take from humans in our own faction
			factor = 0.5
			NOT = { 
				FROM = { 
					OR = {
						is_claimed_by = ROOT
						is_core_of = ROOT
					}
				} 
			}
			FROM = {
				controller = { 
					is_ai = no 
					has_capitulated = no 
					is_puppet = no 
					is_in_faction_with = ROOT
				}
			}
		}
		modifier = { #Do not take inland Chinese territories unless Chinese.
			factor = 0
			has_global_flag = jnc_exists
			NOT = { 
				FROM = { 
					OR = {
						is_claimed_by = ROOT
						is_core_of = ROOT
					}
				} 
			}
			FROM = {
				OR = {
					is_claimed_by = PRC
					is_claimed_by = CHI
					is_core_of = CHI
					is_core_of = PRC
				}
			}
			#Can annex Chinese Warlords.
			NOT = { 
				FROM = { 
					owner = { 
						OR = {
							tag = GXC
							tag = PRC
							tag = YUN
							tag = SHX
							tag = XSM
						}
					} 
				} 
			}
			NOT = {
				OR = {
					tag = CHI
					tag = PRC
					tag = GXC
					tag = YUN
					tag = SHX
					tag = XSM
				}
			}

			#Fascist versions of these countries can take Chinese land
			NOT = { tag = MON }
			NOT = { tag = TIB }
			NOT = { tag = SIK }
			NOT = { tag = ECA }
		}
		modifier = { #If in axis, Japan doesn't take territory out of Asia or Australia or South America or North America (to do)
			factor = 0
			OR = {
				is_in_faction_with = GER
				is_in_faction_with = FRA
				is_in_faction_with = ITA
			}
			NOT = {
				FROM = {
					OR = {
						is_claimed_by = ROOT
						is_core_of = ROOT
					}
				}
			}
			NOT = {
				FROM = {
					OR = {
						is_on_continent = asia
						is_on_continent = australia
						#is_on_continent = south_america
						#AND = { #Deal with this with Japanese specific AI instead, not restrictive enough here
						#	is_on_continent = north_america
						#	is_coastal = yes
						#}
					}
				}			
			}
		}
		modifier = { #Don't steal claims and cores from faction members unless we also have a right to that clay unless they are puppets
			factor = 0
			NOT = { 
				FROM = { 
					OR = {
						is_claimed_by = ROOT
						is_core_of = ROOT
					}
				} 
			}
			any_country = {
				is_in_faction_with = ROOT
				#is_puppet = no
				FROM = {
					OR = {
						is_claimed_by = PREV
						is_core_of = PREV
					}
				}
			}
		}

		modifier = {
			factor = 20

			FROM = {
				OR = {
					is_claimed_by = ROOT
					is_core_of = ROOT
				}
			}
		}

		modifier = {
			factor = 1.25

			capital_scope = {
				distance_to = {
					target = FROM
					value < 100
				}
			}
		}

		modifier = {
			factor = 1.25

			capital_scope = {
				distance_to = {
					target = FROM
					value < 200
				}
			}
		}

		modifier = {
			factor = 1.25

			capital_scope = {
				distance_to = {
					target = FROM
					value < 300
				}
			}
		}

		modifier = {
			factor = 1.25

			capital_scope = {
				distance_to = {
					target = FROM
					value < 400
				}
			}
		}


		modifier = {
			factor = 2
			FROM = {
				OR = {
					num_owned_neighbour_states = {
						count > 1
						owner = ROOT
					}
					num_claimed_peace_conference_neighbour_states = {
						count > 1
						owner = ROOT
					}
					#any_neighbor_state = {
					#	AND = {
					#		controller = {
					#			tag = ROOT
					#		}
					#		owner = {
					#			is_in_peace_conference = no
					#			has_capitulated = yes
					#		}
					#	}					
					#}
				}
			}
		}

		modifier = {
			factor = 2
			FROM = {
				OR = {
					num_owned_neighbour_states = {
						count > 2
						owner = ROOT
					}
					num_claimed_peace_conference_neighbour_states = {
						count > 2
						owner = ROOT
					}
				}
			}
		}

		modifier = {
			factor = 2
			FROM = {
				OR = {
					num_owned_neighbour_states = {
						count > 3
						owner = ROOT
					}
					num_claimed_peace_conference_neighbour_states = {
						count > 3
						owner = ROOT
					}
				}
			}
		}

		modifier = {
			factor = 2
			FROM = {
				OR = {
					num_owned_neighbour_states = {
						count > 4
						owner = ROOT
					}
					num_claimed_peace_conference_neighbour_states = {
						count > 4
						owner = ROOT
					}
				}
			}
		}

		modifier = {
			factor = 2
			FROM = {
				OR = {
					num_owned_neighbour_states = {
						count > 5
						owner = ROOT
					}
					num_claimed_peace_conference_neighbour_states = {
						count > 5
						owner = ROOT
					}
				}
			}
		}
		modifier = { #Fascists will want to keep their spoils...
			factor = 500
			FROM = { controller = { tag = ROOT } }
		}

		modifier = { #Deter expansion outside of continent
			factor = 0.1
			OR = {
				AND = {
					capital_scope = { is_on_continent = europe }
					NOT = { FROM = {is_on_continent = europe } } 
				}
				AND = {
					capital_scope = { is_on_continent = north_america }
					NOT = { FROM = { is_on_continent = north_america } } 
				}
				AND = {
					capital_scope = { is_on_continent = south_america }
					NOT = { FROM = { is_on_continent = south_america } } 
				}
				AND = {
					capital_scope = { is_on_continent = australia }
					NOT = { FROM = { is_on_continent = australia } } 
				}
				AND = {
					capital_scope = { is_on_continent = africa }
					NOT = { FROM = { is_on_continent = africa } } 
				}
				AND = {
					capital_scope = { is_on_continent = asia }
					NOT = { FROM = { is_on_continent = asia } } 
				}
				AND = {
					capital_scope = { is_on_continent = middle_east }
					NOT = { FROM =  { is_on_continent = middle_east } } 
				}
			}
		}

		modifier = { #Only take claimed/core land if a puppet.
			factor = 0
			is_puppet = yes
			FROM = {
				NOT = {
					OR = { 
						is_claimed_by = ROOT
						is_core_of = ROOT
					}
				}
			}
		}
	}

	# ROOT = Taker, FROM = Giver
	force_government = {
		factor = 0
	}
}
