1={11804 }
2={6862 }
3={11604 }
4={9648 }
5={266 }
6={3576 }
7={9498 }
8={6583 }
9={9421 }
10={6511 }
11={11312 }
12={6459 }
13={11426 }
14={6536 }
15={3579 }
16={11518 }
17={9642 }
18={9505 }
19={6762 }
20={11794 }
21={956 }
22={6960 }
23={6657 }
24={11631 }
25={9734 }
26={9607 }
27={3669 }
28={6529 }
29={11483 }
30={9478 }
31={6759 }
32={762 }
33={6651 }
34={9536 }
35={11562 }
36={9363 }
37={3325 }
38={11187 }
39={9630 }
40={1797 }
41={896 }
42={3423 }
43={9690 }
44={3884 }
45={619 }
46={6658 }
47={863 }
48={949 }
49={11784 }
50={6934 }
51={6570 }
52={9652 }
53={9681 }
54={9557 }
55={6549 }
56={241 }
57={9509 }
58={3368 }
59={9375 }
60={3500 }
61={321 }
62={9388 }
63={11288 }
64={3367 }
65={3535 }
66={6462 }
67={9511 }
68={9387 }
69={3418 }
70={3484 }
71={581 }
72={9567 }
73={11536 }
74={3583 }
75={6576 }
76={9672 }
77={11597 }
78={11686 }
79={11672 }
80={9548 }
81={6652 }
82={11592 }
83={6682 }
84={676 }
85={3324 }
86={9532 }
87={11515 }
88={6499 }
89={3743 }
90={3497 }
91={9468 }
92={9521 }
93={11441 }
94={6415 }
95={6359 }
96={406 }
97={11247 }
98={548 }
99={3206 }
100={4861 }
101={12512 }
102={9596 }
103={11816 }
104={9586 }
105={11858 }
106={907 }
107={11586 }
108={9906 }
109={11594 }
110={9036 }
111={3083 }
112={924 }
113={303 }
114={9863 }
115={7147 }
116={12003 }
117={6843 }
118={4135 }
119={276 }
120={131 }
121={9314 }
122={407 }
123={11406 }
124={6258 }
125={11253 }
126={6103 }
127={3501 }
128={11345 }
129={6237 }
130={9315 }
131={9285 }
132={3205 }
133={6385 }
134={9255 }
135={9284 }
136={3150 }
137={705 }
138={11160 }
139={6148 }
140={9138 }
141={6209 }
142={3114 }
143={6118 }
144={11157 }
145={9228 }
146={3060 }
147={197 }
148={6061 }
149={132 }
150={9106 }
151={3662 }
152={688 }
153={671 }
154={6735 }
155={3680 }
156={9990 }
157={925 }
158={776 }
159={6661 }
160={9582 }
161={3773 }
162={9750 }
163={3943 }
164={7003 }
165={6966 }
166={790 }
167={6906 }
168={10024 }
169={6744 }
170={3874 }
171={11677 }
172={3735 }
173={9979 }
174={3920 }
175={11742 }
176={9870 }
177={9793 }
178={13071 }
179={6884 }
180={9817 }
181={9787 }
182={9940 }
183={7193 }
184={11905 }
185={3914 }
186={4078 }
187={3401 }
188={3288 }
189={9731 }
190={265 }
191={6099 }
192={754 }
193={9506 }
194={6319 }
195={11068 }
196={6771 }
197={574 }
198={9435 }
199={3457 }
200={11405 }
201={11477 }
202={9568 }
203={434 }
204={360 }
205={6365 }
206={3267 }
207={9323 }
208={3120 }
209={3310 }
210={248 }
211={9612 }
212={878 }
213={116 }
214={180 }
215={9119 }
216={3033 }
217={11447 }
218={9417 }
219={9302 }
220={580 }
221={11541 }
222={384 }
223={6315 }
224={11325 }
225={3225 }
226={9433 }
227={502 }
228={11487 }
229={6763 }
230={4660 }
231={11599 }
232={712 }
233={3698 }
234={765 }
235={9726 }
236={6620 }
237={3439 }
238={9415 }
239={11408 }
240={9518 }
241={11383 }
242={3362 }
243={236 }
244={9164 }
245={11476 }
246={9343 }
247={6022 }
248={252 }
249={6323 }
250={3269 }
251={339 }
252={11275 }
253={6316 }
254={11314 }
255={9276 }
256={11255 }
257={11436 }
258={9394 }
259={559 }
260={6494 }
261={11776 }
262={6040 }
263={6086 }
264={6131 }
265={11512 }
266={8093 }
267={12653 }
268={4985 }
269={8094 }
270={1280 }
271={4954 }
272={7972 }
273={1994 }
274={10862 }
275={5231 }
276={9583 }
277={7913 }
278={10375 }
279={12984 }
280={8175 }
281={4967 }
282={1097 }
283={1933 }
284={7692 }
285={8249 }
286={7347 }
287={8042 }
288={12127 }
289={7531 }
290={10113 }
291={12855 }
292={7995 }
293={4924 }
294={2059 }
295={10858 }
296={12891 }
297={8244 }
298={8006 }
299={12960 }
300={4457 }
301={12901 }
302={8225 }
303={2156 }
304={7630 }
305={5051 }
306={10846 }
307={5056 }
308={7123 }
309={1928 }
310={4934 }
311={2077 }
312={12865 }
313={4991 }
314={12823 }
315={12347 }
316={13087 }
317={1988 }
318={1594 }
319={10484 }
320={10149 }
321={1273 }
322={1991 }
323={7374 }
324={12860 }
325={10819 }
326={10062 }
327={10265 }
328={3947 }
329={7804 }
330={10558 }
331={7788 }
332={12503 }
333={1306 }
334={4335 }
335={7654 }
336={1392 }
337={13003 }
338={3369 }
339={7130 }
340={9887 }
341={11842 }
342={12016 }
343={856 }
344={11746 }
345={4008 }
346={9755 }
347={904 }
348={921 }
349={6965 }
350={11739 }
351={6182 }
352={864 }
353={10399 }
354={9932 }
355={11881 }
356={3967 }
357={4445 }
358={859 }
359={11900 }
360={6705 }
361={6984 }
362={10343 }
363={12445 }
364={4491 }
365={12325 }
366={1556 }
367={1587 }
368={10615 }
369={6696 }
370={10449 }
371={7552 }
372={4444 }
373={1523 }
374={10798 }
375={6968 }
376={1972 }
377={4796 }
378={766 }
379={4799 }
380={10662 }
381={12651 }
382={12642 }
383={7834 }
384={1683 }
385={10305 }
386={7255 }
387={12535 }
388={1736 }
389={10709 }
390={7745 }
391={6767 }
392={11971 }
393={11714 }
394={1849 }
395={1604 }
396={6713 }
397={6202 }
398={4372 }
399={7359 }
400={10200 }
401={11321 }
402={4376 }
403={4780 }
404={10508 }
405={7639 }
406={464 }
407={3515 }
408={681 }
409={9733 }
410={10782 }
411={8031 }
412={10797 }
413={1922 }
414={10881 }
415={2017 }
416={7573 }
417={10922 }
418={12704 }
419={1822 }
420={4553 }
421={4943 }
422={10229 }
423={4327 }
424={1430 }
425={8011 }
426={10428 }
427={4280 }
428={1190 }
429={1405 }
430={12423 }
431={7220 }
432={1581 }
433={4984 }
434={1996 }
435={1637 }
436={7619 }
437={12080 }
438={8114 }
439={3989 }
440={10173 }
441={7273 }
442={12717 }
443={1980 }
444={8013 }
445={4990 }
446={10005 }
447={7091 }
448={1189 }
449={10117 }
450={1127 }
451={1130 }
452={12033 }
453={11922 }
454={7107 }
455={4591 }
456={1064 }
457={4068 }
458={4061 }
459={11939 }
460={10078 }
461={7173 }
462={1102 }
463={7855 }
464={4430 }
465={4362 }
466={983 }
467={4872 }
468={10320 }
469={736 }
470={7766 }
471={4678 }
472={7696 }
473={10228 }
474={12715 }
475={12867 }
476={8236 }
477={10732 }
478={12746 }
479={13088 }
480={10746 }
481={4946 }
482={10809 }
483={10765 }
484={12461 }
485={8032 }
486={5026 }
487={12917 }
488={10879 }
489={2052 }
490={10942 }
491={10970 }
492={5202 }
493={10864 }
494={8160 }
495={5008 }
496={12938 }
497={5220 }
498={2178 }
499={8184 }
500={10980 }
501={10432 }
502={4575 }
503={4533 }
504={10959 }
505={5151 }
506={5171 }
507={5201 }
508={8253 }
509={8169 }
510={8238 }
511={10992 }
512={10935 }
513={1967 }
514={1958 }
515={8128 }
516={10536 }
517={10622 }
518={2183 }
519={2191 }
520={1454 }
521={7610 }
522={8130 }
523={10974 }
524={1175 }
525={1148 }
526={11932 }
527={9790 }
528={10011 }
529={7212 }
530={9965 }
531={4142 }
532={10125 }
533={1024 }
534={1117 }
535={10015 }
536={12421 }
537={1820 }
538={10071 }
539={8207 }
540={2126 }
541={10957 }
542={12940 }
543={8180 }
544={2120 }
545={10929 }
546={10932 }
547={8133 }
548={12929 }
549={2096 }
550={12723 }
551={12826 }
552={12099 }
553={792 }
554={1074 }
555={13037 }
556={2012 }
557={8058 }
558={8021 }
559={1964 }
560={4844 }
561={4731 }
562={10540 }
563={7785 }
564={10528 }
565={7736 }
566={7838 }
567={4808 }
568={1850 }
569={7886 }
570={12606 }
571={1835 }
572={12157 }
573={12117 }
574={1852 }
575={7726 }
576={4831 }
577={12542 }
578={4827 }
579={9142 }
580={4715 }
581={10677 }
582={10256 }
583={1360 }
584={4958 }
585={1623 }
586={10146 }
587={10262 }
588={4670 }
589={7795 }
590={1223 }
591={11990 }
592={12077 }
593={9978 }
594={7137 }
595={4053 }
596={1055 }
597={9987 }
598={11982 }
599={4085 }
600={1110 }
601={10841 }
602={4125 }
603={4532 }
604={12846 }
605={5048 }
606={12061 }
607={7508 }
608={9843 }
609={900 }
610={9905 }
611={1137 }
612={11752 }
613={12052 }
614={10003 }
615={12344 }
616={10770 }
617={12656 }
618={10674 }
619={5087 }
620={7609 }
621={12880 }
622={4939 }
623={12253 }
624={12279 }
625={1311 }
626={10145 }
627={1234 }
628={7385 }
629={7112 }
630={13051 }
631={13052 }
632={13047 }
633={13044 }
634={10291 }
635={7264 }
636={4286 }
637={7878 }
638={12140 }
639={13021 }
640={7647 }
641={12148 }
642={13050 }
643={13056 }
644={2853 }
645={13025 }
646={13023 }
647={4357 }
648={13026 }
649={5023 }
650={13067 }
651={1258 }
652={7343 }
653={1750 }
654={10531 }
655={1742 }
656={8085 }
657={1802 }
658={2048 }
659={13079 }
660={5084 }
661={10037 }
662={13073 }
663={13078 }
664={3716 }
665={12000 }
666={58 }
667={10191 }
668={1419 }
669={8250 }
670={4339 }
671={1185 }
672={8360 }
673={7598 }
674={10955 }
675={4951 }
676={10811 }
677={1056 }
678={5081 }
679={12758 }
680={12316 }
681={10442 }
682={6510 }
683={10605 }
684={13035 }
685={7617 }
686={1440 }
687={8107 }
688={2195 }
689={12304 }
690={10254 }
691={3284 }
692={13009 }
693={1513 }
694={177 }
695={153 }
696={13010 }
697={3118 }
698={1751 }
699={7979 }
700={2094 }
701={13213 }
702={13014 }
703={13013 }
704={13016 }
705={13015 }
706={13017 }
707={13018 }
708={13072 }
709={2188 }
710={13019 }
711={13005 }
712={13002 }
713={2165 }
714={12690 }
715={12337 }
716={11764 }
717={7613 }
718={2034 }
719={4584 }
720={10995 }
721={1326 }
722={11142 }
723={8204 }
724={1394 }
725={13038 }
726={13080 }
727={13049 }
728={11981 }
729={4189 }
730={373 }
731={3526 }
732={1483 }
733={10321 }
734={7390 }
735={778 }
736={11595 }
737={1286 }
738={4579 }
739={1869 }
740={1420 }
741={12288 }
742={12430 }
743={7301 }
744={4083 }
745={12483 }
746={7540 }
747={6851 }
748={5102 }
749={12144 }
750={7329 }
751={4424 }
752={7342 }
753={12215 }
754={7427 }
755={12299 }
756={4009 }
757={12348 }
758={1838 }
759={4973 }
760={5025 }
761={12156 }
762={6464 }
763={395 }
764={3614 }
765={8051 }
766={6727 }
767={7987 }
768={9962 }
769={2220 }
770={12986 }
771={697 }
772={8193 }
773={2080 }
774={3123 }
775={10893 }
776={12874 }
777={1951 }
778={2001 }
779={5013 }
780={4957 }
781={12707 }
782={1115 }
783={12857 }
784={3320 }
785={3402 }
786={10838 }
787={2084 }
788={7314 }
789={1034 }
790={12732 }
791={1882 }
792={1778 }
793={12899 }
794={7997 }
795={10911 }
796={12601 }
797={1703 }
798={1844 }
799={4788 }
800={4704 }
801={1698 }
802={12432 }
803={1157 }
804={11936 }
805={1248 }
806={10162 }
807={1328 }
808={4284 }
809={1592 }
810={10330 }
811={10317 }
812={10177 }
813={12905 }
814={7387 }
815={2117 }
816={5226 }
817={12252 }
818={5176 }
819={2184 }
820={12129 }
821={1563 }
822={1362 }
823={12331 }
824={10069 }
825={12067 }
826={10018 }
827={1575 }
828={4203 }
829={12274 }
830={12819 }
831={4501 }
832={7965 }
833={1597 }
834={1847 }
835={4514 }
836={927 }
837={9848 }
838={9835 }
839={3913 }
840={10215 }
841={3791 }
842={12837 }
843={7577 }
844={12310 }
845={10431 }
846={10121 }
847={4160 }
848={1020 }
849={6873 }
850={4646 }
851={9981 }
852={3981 }
853={4126 }
854={1081 }
855={5094 }
856={10755 }
857={4777 }
858={4862 }
859={1859 }
860={7294 }
