﻿


##### OOB #####
units = {
### ROCN ###
	
	fleet = {
		name = "USN DD"			
		naval_base = 7186  
		task_force = {
			name = "USN DD"
			location = 7186   
			ship = { name = "Tai Kang" definition = destroyer start_experience_factor = 0.5 equipment = { ship_hull_light_4 = {amount = 1 owner = USA version_name = "Cannon Class"} } }
			ship = { name = "Tai Ping" definition = destroyer start_experience_factor = 0.2 equipment = { ship_hull_light_4 = {amount = 1 owner = USA version_name = "Cannon Class"} } }
		        ship = { name = "Tai Ho" definition = destroyer start_experience_factor = 0.3 equipment = { ship_hull_light_4 = {amount = 1 owner = USA version_name = "Cannon Class"} } }
			ship = { name = "Taihu" definition = destroyer start_experience_factor = 0.5 equipment = { ship_hull_light_4 = {amount = 1 owner = USA version_name = "Cannon Class"} } }
                        ship = { name = "Taicang" definition = destroyer start_experience_factor = 0.5 equipment = { ship_hull_light_4 = {amount = 1 owner = USA version_name = "Cannon Class"} } }
			ship = { name = "Taizhao" definition = destroyer start_experience_factor = 0.2 equipment = { ship_hull_light_4 = {amount = 1 owner = USA version_name = "Cannon Class"} } }



                   }
	}
	