ideas = {
	country = {
		MON_bogd_khan = {
			allowed = {
				always = no
			}

			allowed_civil_war = {
				always = no
			}

			picture = bogd_khan

			removal_cost = -1

			traits = { popular_figurehead }
		}

		japanese_advisors_idea = {

			picture = warrior_traditions_idea

			allowed_civil_war = {
				always = no
			}

			removal_cost = -1

			research_bonus = {
				land_doctrine = 0.10
			}
		}
		true_to_revolution = {

			picture = home_of_the_revolution

			allowed_civil_war = {
				has_government = communism
			}

			modifier = {
				drift_defence_factor = 0.5
			}
		}
		MON_mechanization_idea = {

			picture = generic_industrial_concern_1

			removal_cost = -1

			modifier = {
				production_speed_buildings_factor = 0.05
			}
		}
		MON_cavalry = {
			picture = generic_infantry_bonus
			modifier = {
				cavalry_attack_factor = 0.05
				cavalry_defence_factor = 0.05
			}
		}
		MON_defence = {
			allowed = {
				always = no
			}
			removal_cost = -1
			picture = generic_wall_line
			modifier = {
				production_speed_bunker_factor = 0.2
				production_speed_anti_air_building_factor = 0.2
			}
		}
		MON_desert_warfare = {
			allowed = {
				always = no
			}
			removal_cost = -1
			picture = generic_infantry_bonus
			modifier = {
				attrition = -0.1
			}
		}
		MON_peoples_war = {
			allowed = {
				always = no
			}
			removal_cost = -1
			picture = generic_manpower_bonus
			modifier = {
				conscription = 0.02
				army_core_defence_factor = 0.15
				army_core_attack_factor = 0.15
				partisan_effect = 0.15
			}
		}
		MON_standing_army = {
			allowed = {
				always = no
			}
			removal_cost = -1
			picture = generic_infantry_bonus
			modifier = {
				conscription = 0.03
				army_org_factor = 0.05
			}
		}
		MON_national_education = {
			removal_cost = -1

			picture = generic_research_bonus

			allowed = {
				always = no
			}

			modifier = {
				research_speed_factor = 0.04
			}
		}
		MON_likbez = {
			removal_cost = -1

			picture = generic_research_bonus

			allowed = {
				always = no
			}

			modifier = {
				political_power_factor = 0.5
			}
		}
		MON_neutrality_idea = {

			available = {
				has_government = neutrality
			}

			allowed_civil_war = {
				has_government = neutrality
			}

			removal_cost = -1

			picture = neutrality_idea

			modifier = {
				neutrality_drift = 0.05 #0.1
			}
		}
		MON_neutrality_idea_religious = {

			available = {
				has_government = neutrality
			}

			allowed_civil_war = {
				has_government = neutrality
			}

			removal_cost = -1

			picture = MON_buddhism

			modifier = {
				neutrality_drift = 0.05 #0.1
			}
		}
		MON_democracy_idea = {

			allowed = {
				always = no
			}

			allowed_civil_war = {
				has_government = democratic
			}

			removal_cost = -1

			picture = generic_democratic_drift_bonus

			modifier = {
				democratic_drift = 0.05 #0.1
			}
		}
		MON_fascism_idea = {

			allowed = {
				always = no
			}

			allowed_civil_war = {
				has_government = fascism
			}

			removal_cost = -1

			picture = generic_fascism_drift_bonus

			modifier = {
				fascism_drift = 0.05 #0.1
			}
		}
		MON_communism_idea = {

			allowed = {
				always = no
			}

			allowed_civil_war = {
				has_government = communism
			}

			removal_cost = -1

			picture = generic_communism_drift_bonus

			modifier = {
				communism_drift = 0.05 #0.1
			}
		}
		MON_religious_education_idea = {

			allowed = {
				always = no
			}

			allowed_civil_war = {
				NOT = { has_government = communism }
			}

			removal_cost = -1

			picture = MON_buddhism

			modifier = {
				consumer_goods_factor = -0.1
				foreign_subversive_activites = -0.5
			}
		}
		MON_agriculture_idea = {

			allowed = { always = no }

			picture = generic_agrarian_society

			allowed_civil_war = { always = yes }

			modifier = {
				MONTHLY_POPULATION = 0.45
				stability_factor = 0.05
			}
		}
		MON_chinese_migrants = {

			allowed = { always = no }
			available = {
				CHI = { has_war_with = JAP }
				has_war = no
			}
			picture = generic_production_bonus

			modifier = {
				MONTHLY_POPULATION = 0.70
				conscription_factor = -0.1
			}
		}
		MON_chinese_migrants_opressed = {

			allowed = { always = no }
			available = {
				CHI = { has_war_with = JAP }
				has_war = no
			}
			picture = generic_production_bonus

			modifier = {
				MONTHLY_POPULATION = 0.05
				conscription_factor = -0.15
			}
		}
		MON_militant_buddhism_idea = {
			allowed = { always = no }

			picture = FRA_scw_intervention_nationalists_focus

			allowed_civil_war = { has_government = fascism }

			modifier = {
				training_time_army_factor = -0.05
				conscription = 0.02
			}
		}
		MON_power_struggle = {
			allowed = { always = no }

			picture = generic_disjointed_gov

			allowed_civil_war = { always = no }

			modifier = {
				political_power_factor = -0.25
				research_speed_factor = -0.10
				industrial_capacity_factory = -0.10
				stability_factor = -0.1
			}
		}
		MON_provisional_government = {
			picture = SOV_scientist_defect
			allowed_civil_war = { always = no }
			modifier = {
				political_power_cost = 1
				army_org_factor = -0.5
				consumer_goods_factor = 0.05
			}
		}
		MON_maoist_war = {
			allowed = { always = no }

			picture = generic_communism_drift_bonus

			allowed_civil_war = { always = no }

			modifier = {
				partisan_effect = 0.2
				enemy_partisan_effect = -0.3
			}
		}
		MON_export_revolution_idea = {
			allowed = { always = no }

			picture = ast_volunteer_defence_corps

			allowed_civil_war = { always = no }

			modifier = {
				subversive_activites_upkeep = -0.3
				send_volunteer_divisions_required = -0.5
			}
		}
		MON_soviet_aid = {
			allowed = { always = no }

			picture = generic_production_bonus

			allowed_civil_war = { always = no }

			modifier = {
				production_speed_buildings_factor = 0.15
			}
		}
		MON_harmonic_diplomacy = {
			allowed = { always = no }

			picture = neutrality_idea

			allowed_civil_war = { always = no }

			modifier = {
				trade_opinion_factor = 0.2
				opinion_gain_monthly_factor = 0.1
			}
		}
		MON_resource_nationalism = {
			allowed = { always = no }

			picture = isolation

			allowed_civil_war = { always = no }

			modifier = {
				local_resources_factor = 0.2
				min_export = -0.1
			}
		}
		MON_rovs_support = {
			allowed = { always = no }

			picture = MON_rovs_support

			allowed_civil_war = { always = no }

			available = {
				has_war_with = SOV
			}

			modifier = {
				army_org_factor = 0.15
				conscription_factor = 0.1
				army_morale_factor = 0.1
				land_reinforce_rate = 0.02
			}
		}
		MON_agriculture_idea_sedentarization = {
			allowed = { always = no }

			picture = generic_agrarian_society

			modifier = {
				MONTHLY_POPULATION = 0.65
				stability_factor = 0.1
			}
		}
		MON_resource_effort = {
			picture = generic_industrial_concern_1
			allowed_civil_war = { always = no }
			modifier = {
				local_resources_factor = 0.1
				consumer_goods_factor = -0.05
			}
		}
		MON_resource_effort_capitalist = {
			picture = generic_industrial_concern_1
			allowed_civil_war = { always = no }
			modifier = {
				consumer_goods_factor = 0.1
			}
		}
		MON_joint_ventures_military = {
			picture = generic_central_management
			allowed_civil_war = { always = no }
			modifier = {
				industrial_capacity_factory = 0.1
			}
		}
		MON_joint_ventures_civillian = {
			picture = generic_central_management
			allowed_civil_war = { always = no }
			modifier = {
				consumer_goods_factor = -0.05
			}
		}
		MON_chinese_buff = {
			picture = can_wartime_prices_and_trade_board
			allowed_civil_war = { always = no }
			modifier = {
				industrial_capacity_factory = 0.05
			}
		}
		MON_nomadic = {
			picture = nomadic
			modifier = {
				conscription = 0.03
				production_factory_efficiency_gain_factor = -0.15
			}
		}
		MON_nomadic_comp = {
			picture = nomadic
			modifier = {
				conscription = 0.03
			}
		}
		MON_sovereign_democracy = {
			picture = generic_morale_bonus
			available = {
				has_government = democratic
			}
			modifier = {
				drift_defence_factor = 0.3
				army_core_defence_factor = 0.25
				political_power_factor = 0.15
			}
		}
		MON_military_academy_idea = {
			picture = german_advisors
			modifier = {

			}
		}
	}
	political_advisor = {
		ivan_mikhailov = {
			picture = generic_army_europe_2

			allowed = {
				tag = MON
				#has_completed_focus = MON_white_officers
			}
			available = {
				has_completed_focus = MON_white_officers
			}

			traits = {
				silent_workhorse
				#popular_figurehead
			}
			modifier = {
				#neutrality_drift = 0.05
			}
			ai_will_do = {
				factor = 1
			}
		}
		MON_Sambadondogiin_Tserendorj = {
			picture = generic_political_advisor_asia_3

			allowed = {
				tag = MON
				#has_completed_focus = MON_white_officers
			}
			available = {
			}

			traits = {
				staunch_monarchist
			}
			modifier = {
				#neutrality_drift = 0.05
			}
			ai_will_do = {
				factor = 1
			}
		}
		MON_horloogiyn_choybalsan_pol = {

			picture = choibalsan_blue

			allowed = {
				original_tag = MON
			}
			available =	{
				NOT = { has_country_flag = MON_communists_purged }
			}
			traits = { prince_of_terror }

			ai_will_do = {
				factor = 1
			}
		}
	}
	high_command = {

		MON_lodongijn_dandar = {

			picture = generic_army_asia_2

			allowed = {
				tag = MON
				#has_completed_focus = MON_military_academy
			}
			available = {
				has_completed_focus = MON_military_academy
			}

			traits = { army_cavalry_2 }

			ai_will_do = {
				factor = 1
			}
		}
		MON_butochijn_tsog = {

			picture = generic_army_asia_1

			allowed = {
				tag = MON
				#has_completed_focus = MON_military_academy
			}

			available = {
				has_completed_focus = MON_military_academy
			}

			traits = { army_artillery_2 }

			ai_will_do = {
				factor = 1
			}
		}
	}
}
