
state={
	id=417
	name="STATE_417"

	history={
		owner = PER
		buildings = {
			infrastructure = 3

		}
		add_core_of = PER

	}

	provinces={
		1982 2065 7969 8040 8125 10523 10922 
	}
	manpower=796396
	buildings_max_level_factor=1.000
	state_category=rural
}
