
state={
	id=536
	name="STATE_536"

	history={
		owner = JAP
		add_core_of = JAP
		buildings = {
			infrastructure = 3
			air_base = 4
		}
		victory_points = {
			10444 15 
		}
		victory_points = {
			12421 5 
		}
	}

	provinces={
		3962 7532 10444 10512 12352 12421 12493 
	}
	manpower=1712000
	buildings_max_level_factor=1.000
	state_category=town
}
