
state={
	id = 560
	name="STATE_560" # Nikolayevsk
	manpower = 97663
	
	state_category = rural
	resources={
		steel=24
	}

	history={
		owner = SOV
		buildings = {
			arms_factory = 1
			industrial_complex = 1
			infrastructure = 3
		}
		add_core_of = SOV
	}

	provinces={
		1724 1772 1807 1842 3664 4290 4841 4844 7748 7868 7871 9659 10571 10577 10590 12559 12569 12638 12591
	}
}
