
state={
	id = 610
	name="STATE_610"

	history={
		owner = MAN
		add_core_of = MAN
		add_core_of = CHI
		
		buildings = {
			infrastructure = 4

		}

	}

	provinces={
		814 881 972 3814 3828 3881 6898 6937 7575 7633 9768 9873 9905 10331 10426 11801 11855 
	}
	manpower=1475377
	buildings_max_level_factor=1.000
	state_category=rural
}
