
state={
	id = 717
	name="STATE_717"

	history={
		owner = MAN
		add_core_of = MAN
		add_core_of = CHI
		victory_points = {
			4506 8
		}
		buildings = {
			infrastructure = 2
			arms_factory = 1
			industrial_complex = 1

		}

	}

	provinces={
		 1499 1588 1627 4506 4561 7613 7832 7897 12618 12485 
	}
	manpower=5224174
	buildings_max_level_factor=1.000
	state_category=town
}
