state={
	id = 747
	name="STATE_747"
	manpower = 1034074
	state_category = large_city
	history={
		owner = JAP
		add_core_of = CHI
		
		buildings = {
			infrastructure = 7
			arms_factory = 1
			industrial_complex = 1
			dockyard = 1
			1150 = {
				naval_base = 3
			}
		}
		victory_points = {
			1150 5
		}

	}
	provinces={
		1150 6851 
	}
	buildings_max_level_factor=1.000
}
