state = {
	id = 802
	name = "STATE_802"
	history = {
		owner = SHX
		add_core_of = SHX
		add_core_of = CHI
		
		buildings = {
			infrastructure = 2
			industrial_complex = 1
			
		}
		victory_points = {
			7158 1
		}
		1939.1.1 = {
			
			add_core_of = NSG
			owner = NSG
			controller = NSG
		}

	}
	provinces = {
		7158 10480 12432 
	}
	manpower = 1543000
	buildings_max_level_factor=1.000
	state_category=town
}
