state={
	id = 818
	name="STATE_818"
	provinces={
		1252 4236 4323 5176 7231 7299 7355 10181 10237 10325 12196 
	}
	resources={
		rubber=36
		oil=3
	}
	history={
		victory_points = {
			10237 1 
		}
		owner = INS
		add_core_of = INS
		buildings = {
			infrastructure = 2
			10237 = {
				naval_base = 3

			}
			
			10325 = {
				naval_base = 1

			}

		}

	}
	manpower=494652
	buildings_max_level_factor=1.000
	state_category=rural
}
