state={
	id = 821
	name="STATE_821"
	provinces={
		1374 1563 1577 4554 7426 10238 10453 12210 
	}
	history={
		owner = FIC
		add_core_of = FIC
		#add_core_of = LAO
		add_core_of = CHP
		victory_points = {
			1563 3
		}
		buildings = {
			infrastructure = 2
		}
	}
	manpower=97542
	buildings_max_level_factor=1.000
	state_category=rural
}
