﻿##### Division Templates #####

##MODDED : Removed Far East Troops

division_template = {
	name = "Division d'Infanterie"		
	division_names_group = FRA_INF_01
	# Represents: Division d'Infanterie (Series A and B), Div. d'Inf. de Forteresse
	# Difference is their equipment
	regiments = {
		infantry = { x = 0 y = 0 }
		infantry = { x = 0 y = 1 }
		infantry = { x = 0 y = 2 }
		infantry = { x = 1 y = 0 }
		infantry = { x = 1 y = 1 }
		infantry = { x = 1 y = 2 }
		infantry = { x = 2 y = 0 }
		infantry = { x = 2 y = 1 }
		infantry = { x = 2 y = 2 }
	}
	support = {
		artillery = { x = 0 y = 0 } 	# Heavy Arty Regiment had 2x 155mm battalions
	}
}
division_template = {
	name = "Division Coloniale"		
	division_names_group = FRA_COL_01
	# Represents: Div. d'Inf. Coloniale, Div. d'Inf. Nord-Africaine
	# Difference from DI is their equipment
	regiments = {
		infantry = { x = 0 y = 0 }
		infantry = { x = 0 y = 1 }
		infantry = { x = 0 y = 2 }
		infantry = { x = 1 y = 0 }
		infantry = { x = 1 y = 1 }
		infantry = { x = 1 y = 2 }
		infantry = { x = 2 y = 0 }
		infantry = { x = 2 y = 1 }
		infantry = { x = 2 y = 2 }
	}
	support = {
		artillery = { x = 0 y = 0 } 	# Heavy Arty Regiment had 2x 155mm battalions
	}
}
division_template = {
	name = "Division d'Infanterie Motorisée"	# Division d'Infanterie Motorisée
	division_names_group = FRA_MOT_01

	regiments = {
		motorized = { x = 0 y = 0 }
		motorized = { x = 0 y = 1 }
		motorized = { x = 0 y = 2 }
		motorized = { x = 1 y = 0 }
		motorized = { x = 1 y = 1 }
		motorized = { x = 1 y = 2 }
		motorized = { x = 2 y = 0 }
		motorized = { x = 2 y = 1 }
		motorized = { x = 2 y = 2 }
	}
	support = {
		recon = { x = 0 y = 0 }      # Recon Group consisted of 26 ACs + motorcycles
		artillery = { x = 0 y = 1 }  # Heavy Arty Regiment had 1x 155mm, 1x 105mm battalions
	}
}
division_template = {
	name = "Division d'Infanterie Alpine"	# Division d'Infanterie Alpine
	division_names_group = FRA_MNT_01
	# Note: trimmed to 3x Rgts w/ arty bn added, 1939

	regiments = {
		mountaineers = { x = 0 y = 0 }	# Regular mountain infantry (Infanterie Alpine)
		mountaineers = { x = 0 y = 1 }
		mountaineers = { x = 0 y = 2 }	
		mountaineers = { x = 1 y = 0 }
		mountaineers = { x = 1 y = 1 }
		mountaineers = { x = 1 y = 2 }
		mountaineers = { x = 2 y = 0 }	# Chasseurs Alpins (HOI3 elites)
		mountaineers = { x = 2 y = 1 }	# Chasseurs Alpins (HOI3 elites)
		mountaineers = { x = 2 y = 2 }	# Chasseurs Alpins (HOI3 elites)
		mountaineers = { x = 3 y = 0 }	# Chasseurs Alpins (HOI3 elites)
		mountaineers = { x = 3 y = 1 }	# Chasseurs Alpins (HOI3 elites)
		mountaineers = { x = 3 y = 2 }	# Chasseurs Alpins (HOI3 elites)
	}
}
division_template = {
	name = "Division de Cavalerie" 	# Division de Cavalerie
	division_names_group = FRA_CAV_01
	# Note: Transformed to DLC, DLM divisions, 1936-39 
	regiments = {
		cavalry = { x = 0 y = 0 }
		cavalry = { x = 0 y = 1 }
		cavalry = { x = 1 y = 0 }
		cavalry = { x = 1 y = 1 }
	}
	support = {
		recon = { x = 0 y = 0 }      # Recon Group consisted of 64 ACs/scout cars
	}
}
division_template = {
	name = "Division Légère Mécanique" 		# Division Légère Mécanique
	division_names_group = FRA_MEC_01

	regiments = {
		light_armor = { x = 0 y = 0 }		# Bn. of Hotchkiss, then Souma (Med.) tanks
		light_armor = { x = 0 y = 1 }		# Bn. of Hotchkiss tanks
		motorized = { x = 1 y = 0 }			# Brigade of 2x Rgts., 2 Bns. each (later 1 Rgt. of 3x Bns.)
		motorized = { x = 1 y = 1 }
		motorized = { x = 1 y = 2 }
		motorized = { x = 1 y = 3 }
	}
	support = {
		recon = { x = 0 y = 0 }      # Recon Group consisted of 42 ACs + motorcycles
	}
}
division_template = {
	name = "Brigade de Chars de Combat" 	# Brigade de Chars de Combat, independent armor brigades of 2x Rgts., 2 Bns. each
	division_names_group = FRA_ARM_01
	regiments = {
		light_armor = { x = 0 y = 0 }
		light_armor = { x = 0 y = 1 }
		light_armor = { x = 1 y = 0 }
		light_armor = { x = 1 y = 1 }
	}
}
division_template = {
	name = "Brigade Coloniale"			# Represents: 2xRgt colonial forces and , usually with old equipment
	division_names_group = FRA_COL_01

	regiments = {
		infantry = { x = 0 y = 0 }
		infantry = { x = 0 y = 1 }
		infantry = { x = 0 y = 2 }
		infantry = { x = 1 y = 0 }
		infantry = { x = 1 y = 1 }
		infantry = { x = 1 y = 2 }
	}
	priority = 0
}

##### OOB #####
units = {
	##### Northern France Region #####
	# VIe Corps d'Armée (Région Militaire in 1936) -- Metz
	division= {	# "42ème Division d'Infanterie"
		division_name = {
			is_name_ordered = yes
			name_order = 42
		}
		location = 11502
		division_template = "Division d'Infanterie" 	# Frontline, best equipment
		start_experience_factor = 0.3
	}
	division= {	# "2ème Div. d'Inf. Nord-Africaine"
		division_name = {
			is_name_ordered = yes
			name_order = 42
		}
		location = 5291
		division_template = "Division Coloniale"	 	# Second line, reserve equipment
		start_experience_factor = 0.2
		start_equipment_factor = 0.5

	}
	division= {	
		name = "3ème Brigade de Chars de Combat"
		location = 11502
		division_template = "Brigade de Chars de Combat" 		# FT-17s
		start_experience_factor = 0.2
		force_equipment_variants = { gw_tank_equipment = { owner = "FRA" } }
	}

	# Xe Corps d'Armée (Région Militaire in 1936) -- Strassbourg
	division= {	# "20ème Division d'Infanterie"
		division_name = {
			is_name_ordered = yes
			name_order = 20
		}
		location = 9503
		division_template = "Division d'Infanterie" 	# Second line, reserve equipment
		start_experience_factor = 0.2
		start_equipment_factor = 0.5

	}
	division= {	# "43ème Division d'Infanterie"
		division_name = {
			is_name_ordered = yes
			name_order = 43
		}
		location = 6529
		division_template = "Division d'Infanterie" 	# Frontline, best equipment
		start_experience_factor = 0.3
	}

	# XXe Corps d'Armée (Région Militaire in 1936) -- Nancy
	division= {	# "2ème Division d'Infanterie"
		division_name = {
			is_name_ordered = yes
			name_order = 2
		}
		location = 3629
		division_template = "Division d'Infanterie" 	# Second line, reserve equipment
		start_experience_factor = 0.2
		start_equipment_factor = 0.5

	}
	division= {	# "11ème Division d'Infanterie"
		division_name = {
			is_name_ordered = yes
			name_order = 11
		}
		location = 549
		division_template = "Division d'Infanterie" 	# Frontline, best equipment
		start_experience_factor = 0.3
	}
	division= {	# "4ème Div. d'Inf. Nord-Africaine"
		division_name = {
			is_name_ordered = yes
			name_order = 44
		}
		location = 549
		division_template = "Division Coloniale"	 	# Second line, reserve equipment
		start_experience_factor = 0.2
		start_equipment_factor = 0.5

	}
	division= {	# "2ème Division de Cavalerie"
		division_name = {
			is_name_ordered = yes
			name_order = 2
		}
		location = 11516
		division_template = "Division de Cavalerie" 	
		start_experience_factor = 0.2
		start_equipment_factor = 0.5

	}
	division= {	
		name = "2ème Brigade de Chars de Combat"
		location = 11516
		division_template = "Brigade de Chars de Combat" 		# FT-17s
		start_experience_factor = 0.2
		force_equipment_variants = { gw_tank_equipment = { owner = "FRA" } }
	}

	# Ie Corps d'Armée (Région Militaire in 1936) -- Lille
	division= {	# "1ère Div. d'Infanterie Motorisée"
		division_name = {
			is_name_ordered = yes
			name_order = 1
		}
		location = 11483
		division_template = "Division d'Infanterie Motorisée" 	# All motorized are frontline, best equipment
		start_experience_factor = 0.3
	}
	division= {	# "7ème Division d'Infanterie"
		division_name = {
			is_name_ordered = yes
			name_order = 7
		}
		location = 575
		division_template = "Division d'Infanterie" 	# Second line, reserve equipment
		start_experience_factor = 0.2
		start_equipment_factor = 0.5

	}

	# IIe Corps d'Armée (Région Militaire in 1936) -- Amiens
	division= {	# "3ème Div. d'Infanterie Motorisée"
		division_name = {
			is_name_ordered = yes
			name_order = 3
		}
		location = 454
		division_template = "Division d'Infanterie Motorisée" 	# All motorized are frontline, best equipment
		start_experience_factor = 0.3
	}

	# IIIe Corps d'Armée (Région Militaire in 1936) -- Rouen
	division= {	# "5ème Div. d'Infanterie Motorisée"
		division_name = {
			is_name_ordered = yes
			name_order = 5
		}
		location = 11563
		division_template = "Division d'Infanterie Motorisée" 	# All motorized are frontline, best equipment
		start_experience_factor = 0.3
	}

	# XIIe Corps d'Armée (Région Militaire in 1936) -- Reims
	division= {	# "12ème Div. d'Infanterie Motorisée"
		division_name = {
			is_name_ordered = yes
			name_order = 12
		}
		location = 9472
		division_template = "Division d'Infanterie Motorisée" 	# All motorized are frontline, best equipment
		start_experience_factor = 0.3
	}
	division= {	# "1ère Division Légère Mécanique"
		division_name = {
			is_name_ordered = yes
			name_order = 1
		}
		location = 13011
		division_template = "Division Légère Mécanique" 	# DLM is frontline, best equipment, L Arm = H-35
		start_experience_factor = 0.3
		force_equipment_variants = { light_tank_equipment_1 = { owner = "FRA" } }
	}

	# IVe Corps d'Armée (Région Militaire in 1936) -- Le Mans
	division= {	# "19ème Division d'Infanterie"
		division_name = {
			is_name_ordered = yes
			name_order = 19
		}
		location = 3509
		division_template = "Division d'Infanterie" 	# Frontline, best equipment
		start_experience_factor = 0.3
	}

	# Ve Corps d'Armée (Région Militaire in 1936) -- Orleans
	division= {	# "9ème Div. d'Infanterie Motorisée"
		division_name = {
			is_name_ordered = yes
			name_order = 9
		}
		location = 3509
		division_template = "Division d'Infanterie Motorisée" 	# All motorized are frontline, best equipment
		start_experience_factor = 0.3
	}
	division= {	# "1ère Division de Cavalerie"
		division_name = {
			is_name_ordered = yes
			name_order = 1
		}
		location = 3509
		division_template = "Division de Cavalerie" 	
		start_experience_factor = 0.2
		start_equipment_factor = 0.5

	}

	# IXe Corps d'Armée (Région Militaire in 1936) -- Tours
	division= {	# "23ème Division d'Infanterie"
		division_name = {
			is_name_ordered = yes
			name_order = 23
		}
		location = 3671
		division_template = "Division d'Infanterie" 	# Frontline, best equipment
		start_experience_factor = 0.3
	}
	division= {	# "3ème Div. d'Inf. Nord-Africaine"
		division_name = {
			is_name_ordered = yes
			name_order = 43
		}
		location = 3671
		division_template = "Division Coloniale"	 	# Second line, reserve equipment
		start_experience_factor = 0.2
		start_equipment_factor = 0.5

	}

	# XIe Corps d'Armée (Région Militaire in 1936) -- Nantes
	division= {	# "16ème Division d'Infanterie"
		division_name = {
			is_name_ordered = yes
			name_order = 16
		}
		location = 3552
		division_template = "Division d'Infanterie" 	# Second line, reserve equipment
		start_experience_factor = 0.2
		start_equipment_factor = 0.5

	}
	division= {	# "21ème Division d'Infanterie"
		division_name = {
			is_name_ordered = yes
			name_order = 21
		}
		location = 6536
		division_template = "Division d'Infanterie" 	# Frontline, best equipment
		start_experience_factor = 0.3
	}
	division= {	
		name = "5ème Brigade de Chars de Combat"
		location = 11465
		division_template = "Brigade de Chars de Combat" 		# R-35s
		start_experience_factor = 0.2
		force_equipment_variants = { light_tank_equipment_1 = { owner = "FRA" } }
	}

	# Région Militaire de Paris -- Paris
	division= {	# "10ème Division d'Infanterie"
		division_name = {
			is_name_ordered = yes
			name_order = 10
		}
		location = 11506
		division_template = "Division d'Infanterie" 	# Second line, reserve equipment
		start_experience_factor = 0.2
		start_equipment_factor = 0.5

	}
#	division= {	# "3ème Div. d'Inf. Coloniale"			# missing from OOB, insterted code but commented out -- balance?
#		division_name = {
#			is_name_ordered = yes
#			name_order = 3
#		}
#		location = 11506
#		division_template = "Division Coloniale"	 	# Second line, reserve equipment
#		start_experience_factor = 0.2
#		start_equipment_factor = 0.5
#	}
	division= {	# "3ème Division de Cavalerie"
		division_name = {
			is_name_ordered = yes
			name_order = 3
		}
		location = 11506
		division_template = "Division de Cavalerie" 	
		start_experience_factor = 0.2
		start_equipment_factor = 0.5

	}
	division= {	# "5ème Division de Cavalerie"
		division_name = {
			is_name_ordered = yes
			name_order = 5
		}
		location = 11506
		division_template = "Division de Cavalerie" 	
		start_experience_factor = 0.2
		start_equipment_factor = 0.5

	}
	division= {	
		name = "4ème Brigade de Chars de Combat"
		location = 11506
		division_template = "Brigade de Chars de Combat" 		# R-35s
		start_experience_factor = 0.2
		start_equipment_factor = 0.5
		force_equipment_variants = { light_tank_equipment_1 = { owner = "FRA" } }
	}

	# VIIe Corps d'Armée (Région Militaire in 1936) -- Besançon
	division= {	# "6ème Division d'Infanterie"
		division_name = {
			is_name_ordered = yes
			name_order = 6
		}
		location = 678
		division_template = "Division d'Infanterie" 	# Second line, reserve equipment
		start_experience_factor = 0.2
		start_equipment_factor = 0.5

	}
	division= {	# "13ème Division d'Infanterie"
		division_name = {
			is_name_ordered = yes
			name_order = 13
		}
		location = 678
		division_template = "Division d'Infanterie" 	# Frontline, best equipment
		start_experience_factor = 0.3
	}
	division= {	# "14ème Division d'Infanterie"
		division_name = {
			is_name_ordered = yes
			name_order = 14
		}
		location = 9642
		division_template = "Division d'Infanterie" 	# Frontline, best equipment
		start_experience_factor = 0.3
	}

	# VIIIe Corps d'Armée (Région Militaire in 1936) -- Dijon
	division= {	# "15ème Div. d'Infanterie Motorisée"
		division_name = {
			is_name_ordered = yes
			name_order = 15
		}
		location = 3652
		division_template = "Division d'Infanterie Motorisée" 	# All motorized are frontline, best equipment
		start_experience_factor = 0.3
	}
	division= {	# "24ème Division d'Infanterie"
		division_name = {
			is_name_ordered = yes
			name_order = 24
		}
		location = 3652
		division_template = "Division d'Infanterie" 	# Second line, reserve equipment
		start_experience_factor = 0.2
		start_equipment_factor = 0.5

	}

	# Maginot Line -- Divisions d'Forteresse
	division= {	
		name = "Longuyon Div. d'Inf. de Forteresse"
		location = 5291
		division_template = "Brigade Coloniale" 	# Garrison unit, reserve equipment
		start_experience_factor = 0.1
		start_equipment_factor = 0.3

	}
	division= {	
		name = "Metz Div. d'Inf. de Forteresse"
		location = 11502
		division_template = "Brigade Coloniale" 	# Garrison unit, reserve equipment
		start_experience_factor = 0.1
		start_equipment_factor = 0.3

	}
	division= {	
		name = "Sarreguimines Div. d'Inf. de Forteresse"
		location = 3629
		division_template = "Brigade Coloniale" 	# Garrison unit, reserve equipment
		start_experience_factor = 0.1
		start_equipment_factor = 0.3

	}
	division= {	
		name = "Strassbourg Div. d'Inf. de Forteresse"
		location = 9503
		division_template = "Brigade Coloniale" 	# Garrison unit, reserve equipment
		start_experience_factor = 0.1
		start_equipment_factor = 0.3

	}
	division= {	
		name = "Mulhouse Div. d'Inf. de Forteresse"
		location = 678
		division_template = "Brigade Coloniale" 	# Garrison unit, reserve equipment
		start_experience_factor = 0.1
		start_equipment_factor = 0.3

	}

	### Southern France Region
	# XIIIe Corps d'Armée (Région Militaire in 1936) -- Clermont-Ferrand
	division= {	# "4ème Division d'Infanterie"
		division_name = {
			is_name_ordered = yes
			name_order = 4
		}
		location = 11576
		division_template = "Division d'Infanterie" 	# Second line, reserve equipment
		start_experience_factor = 0.2
		start_equipment_factor = 0.5

	}
	division= {	# "18ème Division d'Infanterie"
		division_name = {
			is_name_ordered = yes
			name_order = 18
		}
		location = 11576
		division_template = "Division d'Infanterie" 	# Second line, reserve equipment
		start_experience_factor = 0.2
		start_equipment_factor = 0.5

	}
	division= {	# "25ème Div. d'Infanterie Motorisée"
		division_name = {
			is_name_ordered = yes
			name_order = 25
		}
		location = 11576
		division_template = "Division d'Infanterie Motorisée" 	# All motorized are frontline, best equipment
		start_experience_factor = 0.3
	}

	# XVIIe Corps d'Armée (Région Militaire in 1936) -- Toulouse
	division= {	# "22ème Division d'Infanterie"
		division_name = {
			is_name_ordered = yes
			name_order = 22
		}
		location = 6766
		division_template = "Division d'Infanterie" 	# Second line, reserve equipment
		start_experience_factor = 0.2
		start_equipment_factor = 0.5

	}
	division= {	# "4ème Div. d'Inf. Coloniale"
		division_name = {
			is_name_ordered = yes
			name_order = 4
		}
		location = 6766
		division_template = "Division Coloniale"	 	# Second line, reserve equipment
		start_experience_factor = 0.2
		start_equipment_factor = 0.5

	}

	# XVIIIe Corps d'Armée (Région Militaire in 1936) -- Bordeaux
	division= {	# "36ème Division d'Infanterie"
		division_name = {
			is_name_ordered = yes
			name_order = 36
		}
		location = 9737
		division_template = "Division d'Infanterie" 	# Frontline, best equipment
		start_experience_factor = 0.3
	}
	division= {	# "1ère Div. d'Inf. Coloniale"
		division_name = {
			is_name_ordered = yes
			name_order = 1
		}
		location = 6657
		division_template = "Division Coloniale"	 	# Second line, reserve equipment
		start_experience_factor = 0.2
		start_equipment_factor = 0.5

	}

	# XIVe Corps d'Armée (Région Militaire in 1936) -- Lyon
	division= {	# "27ème Division d'Infanterie Alpine"
		division_name = {
			is_name_ordered = yes
			name_order = 27
		}
		location = 778
		division_template = "Division d'Infanterie Alpine" 	# Frontline, best equipment
		start_experience_factor = 0.3
	}
	division= {	# "30ème Division d'Infanterie Alpine"
		division_name = {
			is_name_ordered = yes
			name_order = 30
		}
		location = 9745
		division_template = "Division d'Infanterie Alpine" 	# Second line, reserve equipment
		start_experience_factor = 0.2
		start_equipment_factor = 0.7

	}
	division= {	# "1ère Div. d'Inf. Nord-Africaine"
		division_name = {
			is_name_ordered = yes
			name_order = 41
		}
		location = 3764
		division_template = "Division Coloniale"	 	# Second line, reserve equipment
		start_experience_factor = 0.2
		start_equipment_factor = 0.5

	}
	division= {	
		name = "1ère Brigade de Chars de Combat"
		location = 6613
		division_template = "Brigade de Chars de Combat" 			# FT-17s
		start_experience_factor = 0.2
		force_equipment_variants = { gw_tank_equipment = { owner = "FRA" } }
	}


	# XVe Corps d'Armée (Région Militaire in 1936) -- Marseille
	division= {	# "29ème Division d'Infanterie Alpine"
		division_name = {
			is_name_ordered = yes
			name_order = 29
		}
		location = 6975
		division_template = "Division d'Infanterie Alpine" 	# Frontline, best equipment
		start_experience_factor = 0.3
	}
	division= {	# "2ème Div. d'Inf. Coloniale"
		division_name = {
			is_name_ordered = yes
			name_order = 2
		}
		location = 11834
		division_template = "Division Coloniale"		 	# Second line, reserve equipment
		start_experience_factor = 0.2
		start_equipment_factor = 0.5

	}

	# XVIe Corps d'Armée (Région Militaire in 1936) -- Montpellier
	division= {	# "31ème Division d'Infanterie Alpine"
		division_name = {
			is_name_ordered = yes
			name_order = 31
		}
		location = 9898
		division_template = "Division d'Infanterie Alpine" 	# Frontline, best equipment
		start_experience_factor = 0.3
	}

	# Division d'Inf. Forteresse -- Nice
	division= {	
		name = "Nice Div. d'Inf. de Forteresse"
		location = 9909
		division_template = "Brigade Coloniale" 	# Garrison unit, reserve equipment
		start_experience_factor = 0.1
		start_equipment_factor = 0.3

	}


	##### North African Theatre #####
	### Army: Troupes de Alger ###
	# XIXe Corps d'Armée (Région Militaire in 1936) -- Alger
	division= {	
		name = "1ère Bge. d'Infanterie Algérienne"
		location = 1145
		division_template = "Brigade Coloniale" 	# Colonial unit, reserve equipment
		force_equipment_variants = { infantry_equipment_0 = { owner = "FRA" } }
		start_experience_factor = 0.1
		start_equipment_factor = 0.3

	}
	division= {	
		name = "2ème Bge. d'Infanterie Algérienne"
		location = 1145
		division_template = "Brigade Coloniale" 	# Colonial unit, reserve equipment
		force_equipment_variants = { infantry_equipment_0 = { owner = "FRA" } }
		start_experience_factor = 0.1
		start_equipment_factor = 0.3

	}
	division= {	
		name = "4ème Bge. d'Infanterie Algérienne"
		location = 1145
		division_template = "Brigade Coloniale" 	# Colonial unit, reserve equipment
		force_equipment_variants = { infantry_equipment_0 = { owner = "FRA" } }
		start_experience_factor = 0.1
		start_equipment_factor = 0.3

	}
	division= {	
		name = "5ème Bge. d'Infanterie Algérienne"
		location = 1145
		division_template = "Brigade Coloniale" 	# Colonial unit, reserve equipment
		force_equipment_variants = { infantry_equipment_0 = { owner = "FRA" } }
		start_experience_factor = 0.1
		start_equipment_factor = 0.3

	}
	# attached directly to Army
	division= {	
		name = "3ème Bge. d'Infanterie Algérienne"
		location = 7132
		division_template = "Brigade Coloniale" 	# Colonial unit, reserve equipment
		force_equipment_variants = { infantry_equipment_0 = { owner = "FRA" } }
		start_experience_factor = 0.1
		start_equipment_factor = 0.3

	}
	division= {	
		name = "7ème Bge. d'Infanterie Algérienne"
		location = 7132
		division_template = "Brigade Coloniale" 	# Colonial unit, reserve equipment
		force_equipment_variants = { infantry_equipment_0 = { owner = "FRA" } }
		start_experience_factor = 0.1
		start_equipment_factor = 0.3

	}
	division= {	
		name = "Groupement Cavalerie d'Algérienne"
		location = 7132
		division_template = "Division de Cavalerie" 	
		force_equipment_variants = { infantry_equipment_0 = { owner = "FRA" } }
		start_experience_factor = 0.1
		start_equipment_factor = 0.3

	}
	
	### Army: Protectorat de Tunisie ### -- Tunis
	division= {	# "Division de Tunise"
		division_name = {
			is_name_ordered = yes
			name_order = 93
		}
		location = 11969
		division_template = "Brigade Coloniale" 	# Colonial unit, reserve equipment
		force_equipment_variants = { infantry_equipment_0 = { owner = "FRA" } }
		start_experience_factor = 0.1
		start_equipment_factor = 0.5

	}
	division= {	# "Division de Sousse"
		division_name = {
			is_name_ordered = yes
			name_order = 94
		}
		location = 9994
		division_template = "Brigade Coloniale" 	# Colonial unit, reserve equipment
		force_equipment_variants = { infantry_equipment_0 = { owner = "FRA" } }
		start_experience_factor = 0.1
		start_equipment_factor = 0.5

	}

	### Army: Protectorat du Maroc ### -- Casablanca
	division= {	# "Division de Meknès"
		division_name = {
			is_name_ordered = yes
			name_order = 98
		}
		location = 7069
		division_template = "Brigade Coloniale" 	# Colonial unit, reserve equipment
		force_equipment_variants = { infantry_equipment_0 = { owner = "FRA" } }
		start_experience_factor = 0.1
		start_equipment_factor = 0.5

	}
	division= {	# "Division de Casablanca"	
		division_name = {
			is_name_ordered = yes
			name_order = 95
		}
		location = 7069
		division_template = "Brigade Coloniale" 	# Colonial unit, reserve equipment
		force_equipment_variants = { infantry_equipment_0 = { owner = "FRA" } }
		start_experience_factor = 0.1
		start_equipment_factor = 0.3

	}
	division= {	# "Division de Fès"
		division_name = {
			is_name_ordered = yes
			name_order = 96
		}
		location = 7100
		division_template = "Brigade Coloniale" 	# Colonial unit, reserve equipment
		force_equipment_variants = { infantry_equipment_0 = { owner = "FRA" } }
		start_experience_factor = 0.1
		start_equipment_factor = 0.3

	}
	division= {	# "Division de Marrakech"	
		division_name = {
			is_name_ordered = yes
			name_order = 97
		}
		location = 7069
		division_template = "Brigade Coloniale" 	# Colonial unit, reserve equipment
		force_equipment_variants = { infantry_equipment_0 = { owner = "FRA" } }
		start_experience_factor = 0.1
		start_equipment_factor = 0.3

	}
	division= {	
		name = "Groupement de Maroc"
		location = 7100
		division_template = "Division de Cavalerie" 	
		force_equipment_variants = { infantry_equipment_0 = { owner = "FRA" } }
		start_experience_factor = 0.1
		start_equipment_factor = 0.3

	}


	##### Eastern Mediterranean Theatre #####
	### Army: Mandat du Levant ### -- Beirut
	division= {	
		name = "Mandat du Levant"
		location = 792
		division_template = "Brigade Coloniale" 	# Colonial unit, reserve equipment
		force_equipment_variants = { infantry_equipment_0 = { owner = "FRA" } }
		start_experience_factor = 0.1
		start_equipment_factor = 0.5

	}

	# Troupes de Madagascar
	division= {	
		name = "Troupes de Madagascar"	
		location = 5222
		division_template = "Brigade Coloniale" 	# Miltia unit, reserve equipment
		force_equipment_variants = { infantry_equipment_0 = { owner = "FRA" } }
		start_equipment_factor = 0.15

	}


	##### Far Seas Theatre ##### -- Dakar
	division= {	
		name = "Troupes de Sénégalais"
		location = 4948
		division_template = "Brigade Coloniale" 	# Miltia unit, reserve equipment
		force_equipment_variants = { infantry_equipment_0 = { owner = "FRA" } }
		start_equipment_factor = 0.3

	}
	division= {	
		name = "Troupes de Afrique Equatoriale Française"	
		location = 5139
		division_template = "Brigade Coloniale" 	# Miltia unit, reserve equipment
		force_equipment_variants = { infantry_equipment_0 = { owner = "FRA" } }
		start_equipment_factor = 0.15

	}

##MODDEDv
	##### Indochina Theatre #####
	### Army Group: Troupes d'Indochine ### -- Saigon
##MODDED^
}

### Air Wings
air_wings = {
	# Z.d'Op. Aériennes Nord -- Lille
	29 = { 
		# Groupement de Chasse 21 
		# Groupement de Chasse 23
		fighter_equipment_0 = {
			owner = "FRA" 
			amount = 192
		}
		# Groupement de Bombardment 6
		# Groupement de Bombardment 9
		tac_bomber_equipment_1 =  {
			owner = "FRA" 
			amount = 60
		}
	}

	# Z.d'Op. Aériennes Est -- Reims
	18 = {
		# Groupement de Chasse 22
		fighter_equipment_0 = {
			owner = "FRA" 
			amount = 96
		}
	}

	# Z.d'Op. Aériennes du Alps -- Marseille
	21 = {
		# Groupement de Chasse d'Alps
		fighter_equipment_0 = {
			owner = "FRA" 
			amount = 96
		}
		# Groupement de Bombardment 1
		# Groupement de Bombardment 6
		# Groupement de Bombardment 9
		tac_bomber_equipment_1 =  {
			owner = "FRA" 
			amount = 90
		}
		# Groupement de Bombardment d'Assault 19
		tac_bomber_equipment_0 =  {
			owner = "FRA" 
			amount = 24
		}
	}

	# Z.d'Op. Aériennes Africain -- Tunis
	458 = {
		# Groupement de Chasse du Nord-Africain
		fighter_equipment_0 = {
			owner = "FRA" 
			amount = 48
		}
		# Groupement de Bombardment du Nord-Africain
		tac_bomber_equipment_1 =  {
			owner = "FRA" 
			amount = 30
		}
	}

	# Aeronautique Navale -- Cherbourg
	15 = {
		# Flotille F1
		nav_bomber_equipment_1 = {
			owner = "FRA" 
			amount = 24
		}
	}
}

#########################
## STARTING PRODUCTION ##
#########################

instant_effect = {
	add_equipment_production = {
		equipment = {
			type = infantry_equipment_1
			creator = "FRA"
		}
		requested_factories = 2
		progress = 0.1
		efficiency = 50
	}

	add_equipment_production = {
		equipment = {
			type = support_equipment_1
			creator = "FRA" 
		}
		requested_factories = 1
		progress = 0.3
		efficiency = 50
	}

	add_equipment_production = {
		equipment = {
			type = artillery_equipment_1
			creator = "FRA" 
		}
		requested_factories = 1
		progress = 0.3
		efficiency = 50
	}

	add_equipment_production = {
		equipment = {
			type = light_tank_equipment_2
			creator = "FRA" 
		}
		requested_factories = 1
		progress = 0.4
		efficiency = 50
	}

	add_equipment_production = {
		equipment = {
			type = motorized_equipment_1
			creator = "FRA" 
		}
		requested_factories = 1
		progress = 0.4
		efficiency = 50
	}

###################
