﻿division_template = {
	name = "Tehwu Lu"				# Represents: two-division infantry corps (generally poorly-equipped militias), and local militia groups

	regiments = {
		infantry = { x = 0 y = 0 }	# Note: Chinese divisions were brigade-sized compared other nations' armies
		infantry = { x = 0 y = 1 }
		infantry = { x = 1 y = 0 }
		infantry = { x = 1 y = 1 }
	}
}
division_template = {
	name = "Bubing Shi"				# Represents: two-division infantry corps (generally poorly-equipped militias), and local militia groups

	regiments = {
		infantry = { x = 0 y = 0 }
		infantry = { x = 0 y = 1 }
		infantry = { x = 1 y = 0 }
		infantry = { x = 1 y = 1 }
		infantry = { x = 2 y = 0 }
		infantry = { x = 2 y = 1 }
	}
}
division_template = {
	name = "Jibing Shi" 			# Cavalry Division - 2 Cavalry Division regiments (3k men); 1 mounted artillery regiment
	regiments = {
		cavalry = { x = 0 y = 0 }
		cavalry = { x = 0 y = 1 }
		cavalry = { x = 0 y = 2 }
	}
}
division_template = {
	name = "Duli Bubing Lu"				

	regiments = {
		infantry = { x = 0 y = 0 }
		infantry = { x = 0 y = 1 }
		infantry = { x = 0 y = 2 }
	}
}


### OOB ###
units = {
	#Szechwan units - 27 divisions
	division = {
		name = "Di 1 Bubing Shi"
		location = 6999
		start_experience_factor = 0.1
		division_template = "Bubing Shi"
		start_equipment_factor = 0.3
	}
	division = {
		name = "Di 2 Bubing Shi"
		location = 6999
		division_template = "Bubing Shi"
		start_experience_factor = 0.1
		start_equipment_factor = 0.3
	}
	division = {
		name = "Di 3 Bubing Shi"
		location = 6999
		division_template = "Bubing Shi"
		start_experience_factor = 0.1
		start_equipment_factor = 0.3
	}
	division = {
		name = "Di 4 Bubing Shi"
		location = 6999
		division_template = "Bubing Shi"
		start_experience_factor = 0.1
		start_equipment_factor = 0.3
	}
	division = {
		name = "Di 5 Bubing Shi"
		location = 6999
		division_template = "Bubing Shi"
		start_experience_factor = 0.1
		start_equipment_factor = 0.3
	}
	division = {
		name = "Di 6 Bubing Shi"
		location = 6999
		division_template = "Bubing Shi"
		start_experience_factor = 0.1
		start_equipment_factor = 0.3
	}
	division = {
		name = "Di 7 Bubing Shi"
		location = 6999
		start_experience_factor = 0.1
		division_template = "Bubing Shi"
		start_equipment_factor = 0.3
	}
	division = {
		name = "Di 8 Bubing Shi"
		location = 6999
		division_template = "Bubing Shi"
		start_experience_factor = 0.1
		start_equipment_factor = 0.3
	}
	division = {
		name = "Di 9 Bubing Shi"
		location = 6999
		division_template = "Bubing Shi"
		start_experience_factor = 0.1
		start_equipment_factor = 0.3
	}
	division = {
		name = "Di 10 Bubing Shi"
		location = 6999
		division_template = "Bubing Shi"
		start_experience_factor = 0.1
		start_equipment_factor = 0.3
	}
	division = {
		name = "Di 11 Bubing Shi"
		location = 6999
		division_template = "Bubing Shi"
		start_experience_factor = 0.1
		start_equipment_factor = 0.3
	}
	division = {
		name = "Di 12 Bubing Shi"
		location = 6999
		division_template = "Bubing Shi"
		start_experience_factor = 0.1
		start_equipment_factor = 0.3
	}
	division = {
		name = "Di 13 Bubing Shi"
		location = 6999
		division_template = "Bubing Shi"
		start_experience_factor = 0.1
		start_equipment_factor = 0.3
	}
	division = {
		name = "Di 14 Bubing Shi"
		location = 6999
		division_template = "Bubing Shi"
		start_experience_factor = 0.1
		start_equipment_factor = 0.3
	}
	division = {
		name = "Di 15 Bubing Shi"
		location = 6999
		division_template = "Bubing Shi"
		start_experience_factor = 0.1
		start_equipment_factor = 0.3
	}
	division = {
		name = "Di 16 Bubing Shi"
		location = 6999
		division_template = "Bubing Shi"
		start_experience_factor = 0.1
		start_equipment_factor = 0.3
	}
	division = {
		name = "Di 17 Bubing Shi"
		location = 6999
		division_template = "Bubing Shi"
		start_experience_factor = 0.1
		start_equipment_factor = 0.3
	}
	division = {
		name = "Di 18 Bubing Shi"
		location = 6999
		division_template = "Bubing Shi"
		start_experience_factor = 0.1
		start_equipment_factor = 0.3
	}
	division = {
		name = "Di 19 Bubing Shi"
		location = 6999
		start_experience_factor = 0.1
		division_template = "Bubing Shi"
		start_equipment_factor = 0.3
	}
	division = {
		name = "Di 20 Bubing Shi"
		location = 6999
		division_template = "Independent Infantry Regiment"
		start_experience_factor = 0.1
		start_equipment_factor = 0.3
	}
	division = {
		name = "Di 21 Bubing Shi"
		location = 6999
		division_template = "Independent Infantry Regiment"
		start_experience_factor = 0.1
		start_equipment_factor = 0.3
	}
	division = {
		name = "Di 22 Bubing Shi"
		location = 6999
		division_template = "Independent Infantry Regiment"
		start_experience_factor = 0.1
		start_equipment_factor = 0.3
	}
	division = {
		name = "Di 23 Bubing Shi"
		location = 6999
		division_template = "Independent Infantry Regiment"
		start_experience_factor = 0.1
		start_equipment_factor = 0.3
	}
	division = {
		name = "Di 24 Bubing Shi"
		location = 6999
		division_template = "Independent Infantry Regiment"
		start_experience_factor = 0.1
		start_equipment_factor = 0.3
	}
	division = {
		name = "Di 25 Bubing Shi"
		location = 6999
		division_template = "Independent Infantry Regiment"
		start_experience_factor = 0.1
		start_equipment_factor = 0.3
	}
	division = {
		name = "Di 26 Bubing Shi"
		location = 6999
		division_template = "Independent Infantry Regiment"
		start_experience_factor = 0.1
		start_equipment_factor = 0.3
	}
	division = {
		name = "Di 27 Bubing Shi"
		location = 6999
		division_template = "Independent Infantry Regiment"
		start_experience_factor = 0.1
		start_equipment_factor = 0.3
	}
}

### STARTING PRODUCTION ###
instant_effect = {
	add_equipment_production = {
		equipment = {
			type = infantry_equipment_0
			creator = "SIC"
		}
		requested_factories = 1
		progress = 0.79
		efficiency = 100
	}
}
